{
  "kind": "collectionType",
  "collectionName": "shared_babies",
  "info": {
    "name": "shared_baby",
    "description": ""
  },
  "options": {
    "increments": true,
    "timestamps": true,
    "draftAndPublish": true
  },
  "attributes": {
    "baby": {
      "model": "baby"
    },
    "id_vinculated": {
      "unique": true,
      "plugin": "users-permissions",
      "model": "user"
    },
    "relation": {
      "type": "string",
      "required": true
    },
    "is_active": {
      "type": "boolean",
      "required": true
    }
  }
}
