{
  "kind": "collectionType",
  "collectionName": "insurances",
  "info": {
    "name": "Insurance",
    "description": ""
  },
  "options": {
    "increments": true,
    "timestamps": true,
    "draftAndPublish": true
  },
  "attributes": {
    "number": {
      "type": "string",
      "required": true
    },
    "baby": {
      "via": "insurances",
      "model": "baby"
    },
    "vendor": {
      "model": "insurance-vendors"
    }
  }
}
