{
  "kind": "collectionType",
  "collectionName": "weights",
  "info": {
    "name": "Weight",
    "description": ""
  },
  "options": {
    "increments": true,
    "timestamps": true,
    "draftAndPublish": true
  },
  "attributes": {
    "pounds": {
      "type": "string",
      "required": true
    },
    "baby": {
      "via": "weights",
      "model": "baby"
    }
  }
}
