{
  "kind": "collectionType",
  "collectionName": "visitors",
  "info": {
    "name": "Visitors",
    "description": ""
  },
  "options": {
    "increments": true,
    "timestamps": true,
    "draftAndPublish": true
  },
  "attributes": {
    "name": {
      "type": "string",
      "required": true
    },
    "phone": {
      "type": "string",
      "required": true
    },
    "date": {
      "required": true,
      "type": "date"
    },
    "clinic": {
      "model": "clinic"
    },
    "doctor": {
      "plugin": "users-permissions",
      "model": "user"
    }
  }
}
