{
  "kind": "collectionType",
  "collectionName": "babies",
  "info": {
    "name": "baby",
    "description": ""
  },
  "options": {
    "increments": true,
    "timestamps": true,
    "draftAndPublish": true
  },
  "attributes": {
    "creator": {
      "plugin": "users-permissions",
      "model": "user"
    },
    "gender": {
      "type": "enumeration",
      "enum": [
        "Masculino",
        "Femenino"
      ],
      "required": true
    },
    "image": {
      "model": "file",
      "via": "related",
      "allowedTypes": [
        "images"
      ],
      "plugin": "upload",
      "required": false,
      "pluginOptions": {}
    },
    "birth_date": {
      "type": "date",
      "required": true
    },
    "deleted_at": {
      "type": "datetime"
    },
    "doctors": {
      "plugin": "users-permissions",
      "collection": "user"
    },
    "injected_vaccines": {
      "via": "baby",
      "collection": "injected-vaccines"
    },
    "suffered_diseases": {
      "collection": "suffered-diseases",
      "via": "baby"
    },
    "blood_type": {
      "model": "blood-type"
    },
    "name": {
      "type": "string",
      "required": true
    },
    "last_name": {
      "type": "string",
      "required": true
    },
    "measures": {
      "via": "baby",
      "collection": "measure"
    },
    "insurances": {
      "via": "baby",
      "collection": "insurance"
    },
    "weights": {
      "via": "baby",
      "collection": "weight"
    },
    "cranial_pressures": {
      "via": "baby",
      "collection": "cranial-pressure"
    },
    "injuries": {
      "via": "baby",
      "collection": "injury"
    },
    "deleted": {
      "type": "boolean",
      "default": false
    },
    "id_card": {
      "type": "string",
      "unique": true
    }
  }
}
