{
  "kind": "collectionType",
  "collectionName": "meta_users",
  "info": {
    "name": "meta_user",
    "description": ""
  },
  "options": {
    "increments": true,
    "timestamps": true,
    "draftAndPublish": true
  },
  "attributes": {
    "id_user": {
      "via": "meta_user",
      "plugin": "users-permissions",
      "model": "user"
    },
    "image": {
      "model": "file",
      "via": "related",
      "allowedTypes": [
        "images"
      ],
      "plugin": "upload",
      "required": false,
      "pluginOptions": {}
    },
    "birth_date": {
      "type": "datetime",
      "required": false
    },
    "address": {
      "type": "string",
      "required": false
    },
    "gender": {
      "type": "enumeration",
      "enum": [
        "Masculino",
        "Femenino"
      ],
      "required": false
    },
    "doctor": {
      "plugin": "users-permissions",
      "model": "user"
    },
    "country": {
      "model": "country"
    },
    "city": {
      "via": "meta_users",
      "model": "city"
    }
  }
}
