{
  "kind": "collectionType",
  "collectionName": "vaccines",
  "info": {
    "name": "vaccine",
    "description": ""
  },
  "options": {
    "increments": true,
    "timestamps": true,
    "draftAndPublish": true
  },
  "attributes": {
    "name": {
      "type": "string",
      "required": true,
      "unique": true
    },
    "doses": {
      "type": "json",
      "required": true
    },
    "symptoms": {
      "type": "json"
    },
    "warning_conditions": {
      "type": "json",
      "required": false
    },
    "injected_vaccines": {
      "via": "vaccine",
      "collection": "injected-vaccines"
    },
    "doses_required": {
      "type": "string",
      "required": true,
      "default": "1"
    }
  }
}
