<?xml version="1.0" encoding="UTF-8"?>
<svg width="50px" height="50px" viewBox="0 0 50 50" version="1.1" xmlns="http://www.w3.org/2000/svg" xmlns:xlink="http://www.w3.org/1999/xlink">
    <!-- Generator: Sketch 52.2 (67145) - http://www.bohemiancoding.com/sketch -->
    <title>Oval</title>
    <desc>Created with Sketch.</desc>
    <defs>
        <circle id="path-1" cx="25" cy="25.0588235" r="24.5294118"></circle>
    </defs>
    <g id="RTLS-PAGE" stroke="none" stroke-width="1" fill="none" fill-rule="evenodd">
        <g id="DASHBOARD" transform="translate(-1369.000000, -15.000000)">
            <g id="Group-21" transform="translate(1223.000000, 15.000000)">
                <g id="Group-3" transform="translate(146.000000, 0.000000)">
                    <g id="Oval">
                        <mask id="mask-2" fill="white">
                            <use xlink:href="#path-1"></use>
                        </mask>
                        <use id="Mask" fill="#A8DC03" xlink:href="#path-1"></use>
                        <ellipse fill="#092E6E" mask="url(#mask-2)" transform="translate(25.000000, 25.058824) rotate(-240.000000) translate(-25.000000, -25.058824) " cx="25" cy="25.0588235" rx="24.5294118" ry="19.6470588"></ellipse>
                    </g>
                </g>
            </g>
        </g>
    </g>
</svg>