{
  "routes": [
    {
      "method": "POST",
      "path": "/auth/local/register/doctor",
      "handler": "Auth.registerDoctor",
      "config": {
        "policies": ["plugins::users-permissions.ratelimit"],
        "prefix": "",
        "description": "Register a new user with the role doctor",
        "tag": {
          "plugin": "users-permissions",
          "name": "User",
          "actionType": "create"
        }
      }
    },
    {
      "method": "POST",
      "path": "/auth/send-email-confirmation",
      "handler": "Auth.sendEmailConfirmation",
      "config": {
        "policies": ["plugins::users-permissions.limitEmailConfirmation"],
        "prefix": "",
        "description": "Send a confirmation email to user",
        "tag": {
          "plugin": "users-permissions",
          "name": "User"
        }
      }
    }
  ]
}
