{
  "routes": [
    {
      "method": "GET",
      "path": "/injected-vaccines",
      "handler": "injected-vaccines.find",
      "config": {
        "policies": []
      }
    },
    {
      "method": "GET",
      "path": "/injected-vaccines/count",
      "handler": "injected-vaccines.count",
      "config": {
        "policies": []
      }
    },
    {
      "method": "GET",
      "path": "/injected-vaccines/:id",
      "handler": "injected-vaccines.findOne",
      "config": {
        "policies": []
      }
    },
    {
      "method": "POST",
      "path": "/injected-vaccines",
      "handler": "injected-vaccines.create",
      "config": {
        "policies": []
      }
    },
    {
      "method": "POST",
      "path": "/injected-vaccines/multiple",
      "handler": "injected-vaccines.createMultipleInjectedVaccines",
      "config": {
        "policies": []
      }
    },
    {
      "method": "PUT",
      "path": "/injected-vaccines/:id",
      "handler": "injected-vaccines.update",
      "config": {
        "policies": []
      }
    },
    {
      "method": "DELETE",
      "path": "/injected-vaccines/multiple/:IDs",
      "handler": "injected-vaccines.deleteMultipleInjectedVaccines",
      "config": {
        "policies": []
      }
    },
    {
      "method": "DELETE",
      "path": "/injected-vaccines/:id",
      "handler": "injected-vaccines.delete",
      "config": {
        "policies": []
      }
    }
  ]
}
