{
  "kind": "collectionType",
  "collectionName": "suffered_diseases",
  "info": {
    "name": "suffered_diseases"
  },
  "options": {
    "increments": true,
    "timestamps": true,
    "draftAndPublish": true
  },
  "attributes": {
    "baby": {
      "via": "suffered_diseases",
      "model": "baby"
    },
    "disease": {
      "model": "diseases"
    },
    "started_at": {
      "type": "datetime",
      "required": true
    },
    "finished_at": {
      "type": "datetime"
    }
  }
}
