{
  "routes": [
    {
      "method": "GET",
      "path": "/medicines",
      "handler": "medicine.find",
      "config": {
        "policies": []
      }
    },
    {
      "method": "GET",
      "path": "/medicines/count",
      "handler": "medicine.count",
      "config": {
        "policies": []
      }
    },
    {
      "method": "GET",
      "path": "/medicines/:id",
      "handler": "medicine.findOne",
      "config": {
        "policies": []
      }
    },
    {
      "method": "POST",
      "path": "/medicines",
      "handler": "medicine.create",
      "config": {
        "policies": []
      }
    },
    {
      "method": "PUT",
      "path": "/medicines/:id",
      "handler": "medicine.update",
      "config": {
        "policies": []
      }
    },
    {
      "method": "DELETE",
      "path": "/medicines/:id",
      "handler": "medicine.delete",
      "config": {
        "policies": []
      }
    }
  ]
}
